When Actuarial Science Collides with Data Science: Visualizing Time Series
…
The has_gaps function can help us to check whether there
are any gaps in the data.

has_gaps(df_1_ts) %>%
  filter(.gaps == TRUE)

# A tibble: 0 x 2
# ... with 2 variables: data_series <chr>, .gaps <lgl>

df_1 %>%
  as_tsibble(index = month_year_recoded,
             key = data_series) %>%
  has_gaps()

# A tibble: 146 x 2
   data_series                                                   .gaps
   <chr>                                                         <lgl>
 1 Accommodation                                                 TRUE 
 2 Air Fares                                                     TRUE 
 3 Alcoholic Drinks & Tobacco                                    TRUE 
 4 All Items                                                     TRUE 
 5 All Items Less Accommodation                                  TRUE 
 6 All Items Less Imputed Rentals On Owner-Occupied Accommodati~ TRUE 
 7 Audio-Visual Equipment & Others                               TRUE 
 8 Beef, Chilled                                                 TRUE 
 9 Beer                                                          TRUE 
10 Biscuits & Cookies                                            TRUE 
# ... with 136 more rows

If the dataset contains only one key, we can use
as_tsibble function without specifying the key.

df_1 %>%
  filter(data_series == "All Items") %>%
  as_tsibble(index = month_year_recoded)

# A tsibble: 102 x 3 [1D]
   data_series   cpi month_year_recoded
   <chr>       <dbl> <date>            
 1 All Items    99.5 2014-01-01        
 2 All Items    99.5 2014-02-01        
 3 All Items    99.7 2014-03-01        
 4 All Items    99.3 2014-04-01        
 5 All Items    99.7 2014-05-01        
 6 All Items    99.5 2014-06-01        
 7 All Items    99.2 2014-07-01        
 8 All Items    99.7 2014-08-01        
 9 All Items    99.6 2014-09-01        
10 All Items    99.3 2014-10-01        
# ... with 92 more rows

Once the dataset is converted into tsibble format, the usual
filter function would not work.

To do so, use filter_index function to perform the
filtering job.

df_1_ts %>%
  filter_index(~"2021-12")

# A tsibble: 14,016 x 3 [1M]
# Key:       data_series [146]
   data_series     cpi month_year_recoded
   <chr>         <dbl>              <mth>
 1 Accommodation  117.           2014 Jan
 2 Accommodation  117.           2014 Feb
 3 Accommodation  117.           2014 Mar
 4 Accommodation  114.           2014 Apr
 5 Accommodation  116.           2014 May
 6 Accommodation  116.           2014 Jun
 7 Accommodation  114.           2014 Jul
 8 Accommodation  116.           2014 Aug
 9 Accommodation  116.           2014 Sep
10 Accommodation  114.           2014 Oct
# ... with 14,006 more rows
…
