Exponential Smoothing
…
# A mable: 1 x 1
    `ETS(cpi)`
       <model>
1 <ETS(A,N,A)>

On surface, it seems like there is no info for the fitted model. The
info of fitted model is actually within the object.

So, we can “unpack” the info by using augment
function.

augment(ts_ets)

# A tsibble: 67 x 6 [1M]
# Key:       .model [1]
   .model   month_year_recoded   cpi .fitted    .resid    .innov
   <chr>                 <mth> <dbl>   <dbl>     <dbl>     <dbl>
 1 ETS(cpi)           2014 Jan  99.5    99.4  0.144     0.144   
 2 ETS(cpi)           2014 Feb  99.5    99.6 -0.138    -0.138   
 3 ETS(cpi)           2014 Mar  99.7    99.6  0.156     0.156   
 4 ETS(cpi)           2014 Apr  99.3    99.3 -0.000674 -0.000674
 5 ETS(cpi)           2014 May  99.7    99.6  0.0641    0.0641  
 6 ETS(cpi)           2014 Jun  99.5    99.7 -0.195    -0.195   
 7 ETS(cpi)           2014 Jul  99.2    99.3 -0.0478   -0.0478  
 8 ETS(cpi)           2014 Aug  99.7    99.6  0.160     0.160   
 9 ETS(cpi)           2014 Sep  99.6    99.6 -0.0699   -0.0699  
10 ETS(cpi)           2014 Oct  99.3    99.3  0.00315   0.00315 
# ... with 57 more rows
…
