Reading PDF into R
…
Then, I will convert the text into a tibble table by using as_tibble function. I will filter out all the empty rows after converting into the data frame.

df[[10]] %>%
  read_lines() %>%
  str_squish() %>%
  as_tibble() %>%
  filter(value != "")

# A tibble: 34 x 1
   value                                                              
   <chr>                                                              
 1 data, this project aims to benefit the actuarial community by prov~
 2 use case on how modern data science can be implemented in an actua~
 3 3.2 Claim Cost Estimation                                          
 4 Claim cost estimation is one of the important tasks in actuarial s~
 5 estimate claim cost accurately could translate into a lower cost o~
 6 for the customers.                                                 
 7 In general, cash flow can be categorized into 4 types depending on~
 8 and whether the amount of the cash flow is known upfront. They are~
 9 Timing of Cashflow Cashflow Amount                                 
10 Type I Deterministic Deterministic                                 
# ... with 24 more rows

df_page <- df[[10]] %>%
  read_lines() %>%
  str_squish() %>%
  as_tibble() %>%
  filter(value != "")

df_page

# A tibble: 34 x 1
   value                                                              
   <chr>                                                              
 1 data, this project aims to benefit the actuarial community by prov~
 2 use case on how modern data science can be implemented in an actua~
 3 3.2 Claim Cost Estimation                                          
 4 Claim cost estimation is one of the important tasks in actuarial s~
 5 estimate claim cost accurately could translate into a lower cost o~
 6 for the customers.                                                 
 7 In general, cash flow can be categorized into 4 types depending on~
 8 and whether the amount of the cash flow is known upfront. They are~
 9 Timing of Cashflow Cashflow Amount                                 
10 Type I Deterministic Deterministic                                 
# ... with 24 more rows
…
Now the page is being tokenized.

I will perform frequency count on the word as shown below.

df_token_df <- 
  df_token %>%
  dfm() %>%
  tidy() %>%
  group_by(term) %>%
  summarise(tot_count = sum(count)) %>%
  arrange(desc(tot_count))

df_token_df

# A tibble: 127 x 2
   term          tot_count
   <chr>             <dbl>
 1 claim                10
 2 insurers              8
 3 cost                  6
 4 stochastic            5
 5 assumptions           4
 6 deterministic         4
 7 size                  4
 8 type                  4
 9 actuarial             3
10 amount                3
# ... with 117 more rows
…
