Navigating Insurance Claim Data Through Tidymodels Universe
…
<img src="figs/gen_recipe_output.png" width="90%" />

---

Checking the data type is also a very crucial step before the modeling as inappropriate variable types might affect the performance of the models.

```r
gen_recipe %>% 
  summary()
```

```
## # A tibble: 26 x 4
##    variable           type    role      source  
##    <chr>              <chr>   <chr>     <chr>   
##  1 DateTimeOfAccident date    id        original
##  2 DateReported       date    id        original
##  3 Age                numeric predictor original
##  4 Gender             nominal predictor original
##  5 MaritalStatus      nominal predictor original
##  6 DependentChildren  numeric predictor original
##  7 DependentsOther    numeric predictor original
##  8 WeeklyWages        numeric predictor original
##  9 PartTimeFullTime   nominal predictor original
## 10 HoursWorkedPerWeek numeric predictor original
## # ... with 16 more rows
```
…
---

Once the words are tokenized, we can perform frequency count on the words to understand which are the words tend to appear more frequent than the rest.

```r
tidy_clm_unigram %>%
  count(word, sort = TRUE)
```

```
## # A tibble: 3,449 x 2
##    word        n
##    <chr>   <int>
##  1 right   19839
##  2 left    18470
##  3 back    13438
##  4 strain  12124
##  5 lower    8170
##  6 finger   7884
##  7 hand     7145
##  8 struck   6868
##  9 lifting  6774
## 10 eye      5155
## # ... with 3,439 more rows
```
…
