When Actuarial Science Collides with Data Science: Bayes Optimisation
…
I will also collect the model performance under regular grid
search.

ranger_tune_regular %>%
  collect_metrics()

# A tibble: 144 x 8
    mtry trees .metric .estimator  mean     n std_err .config         
   <int> <int> <chr>   <chr>      <dbl> <int>   <dbl> <chr>           
 1     1     1 roc_auc binary     0.658    10 0.0195  Preprocessor1_M~
 2     1   182 roc_auc binary     0.927    10 0.00948 Preprocessor1_M~
 3     1   364 roc_auc binary     0.924    10 0.00829 Preprocessor1_M~
 4     1   546 roc_auc binary     0.923    10 0.00789 Preprocessor1_M~
 5     1   727 roc_auc binary     0.926    10 0.00839 Preprocessor1_M~
 6     1   909 roc_auc binary     0.923    10 0.00831 Preprocessor1_M~
 7     1  1091 roc_auc binary     0.927    10 0.00881 Preprocessor1_M~
 8     1  1273 roc_auc binary     0.925    10 0.00854 Preprocessor1_M~
 9     1  1454 roc_auc binary     0.925    10 0.00832 Preprocessor1_M~
10     1  1636 roc_auc binary     0.926    10 0.00835 Preprocessor1_M~
# ... with 134 more rows
…
