Prophet
…
Note that according to the documentation page, the units in the cross_validation function must be some units can be accepted by as.difftime function.

Refer to this link on the units can be accepted by as.difftime function.

We could calculate the performance by passing the cross validation results into performance_metrics function.

performance_metrics(prophet_cv) %>% 
  as_tibble()

# A tibble: 66 x 8
   horizon        mse   rmse    mae   mape  mdape  smape coverage
   <drtn>       <dbl>  <dbl>  <dbl>  <dbl>  <dbl>  <dbl>    <dbl>
 1 56 days 490534674. 22148. 20402. 0.0316 0.0314 0.0315    0.714
 2 57 days 476254261. 21823. 19937. 0.0310 0.0295 0.0308    0.714
 3 58 days 468230873. 21639. 20033. 0.0309 0.0295 0.0309    0.738
 4 59 days 448434841. 21176. 20129. 0.0303 0.0327 0.0303    0.786
 5 60 days 497390907. 22302. 21052. 0.0297 0.0307 0.0298    0.714
 6 61 days 515372967. 22702. 21460. 0.0308 0.0327 0.0309    0.643
 7 62 days 496467045. 22282. 21107. 0.0316 0.0335 0.0315    0.679
 8 86 days 426855747. 20660. 19469. 0.0293 0.0318 0.0294    0.786
 9 87 days 366640702. 19148. 17734. 0.0271 0.0273 0.0270    0.857
10 88 days 374698840. 19357. 18046. 0.0277 0.0299 0.0277    0.857
# ... with 56 more rows
…
