When Actuarial Science Collides with Data Science: Hyperparameters Tuning With Regular Search and Non-regular Search
…
Classification

ROC curve & accuracy

We could extract the model performance by passing the
tune_results object into collect_metrics
function.

I have also arranged the model performance in descending manner.

ranger_tune_grid %>%
  collect_metrics() %>%
  arrange(desc(mean))

# A tibble: 49 x 8
    mtry trees .metric .estimator  mean     n std_err .config         
   <int> <int> <chr>   <chr>      <dbl> <int>   <dbl> <chr>           
 1     4  1000 roc_auc binary     0.969    10 0.00540 Preprocessor1_M~
 2     4  2000 roc_auc binary     0.968    10 0.00520 Preprocessor1_M~
 3     4  1333 roc_auc binary     0.968    10 0.00518 Preprocessor1_M~
 4     4   667 roc_auc binary     0.968    10 0.00546 Preprocessor1_M~
 5     4  1666 roc_auc binary     0.967    10 0.00546 Preprocessor1_M~
 6     5   667 roc_auc binary     0.967    10 0.00565 Preprocessor1_M~
 7     5  1000 roc_auc binary     0.967    10 0.00544 Preprocessor1_M~
 8     5  1333 roc_auc binary     0.967    10 0.00522 Preprocessor1_M~
 9     4   334 roc_auc binary     0.967    10 0.00497 Preprocessor1_M~
10     5  2000 roc_auc binary     0.967    10 0.00554 Preprocessor1_M~
# ... with 39 more rows
…
