When Actuarial Science Collides with Data Science: Linear Mixed Effect Model
…
Prediction

We could extract the prediction by using augment function from tidymodels package.

prediction_df <-
  lmer_fit %>% 
  augment(df_1)

prediction_df

# A tibble: 2,443 x 35
     ref company_man~1 revie~2 count~3 speci~4 cocoa~5 num_i~6 compo~7
   <dbl> <chr>           <dbl> <chr>   <chr>     <dbl> <chr>   <chr>  
 1  2454 5150             2019 Tanzan~ Kokoa ~      76 3       " B,S,~
 2  2458 5150             2019 Domini~ Zorzal~      76 3       " B,S,~
 3  2454 5150             2019 Madaga~ Bejofo~      76 3       " B,S,~
 4  2542 5150             2021 Fiji    Matasa~      68 3       " B,S,~
 5  2546 5150             2021 Venezu~ Sur de~      72 3       " B,S,~
 6  2546 5150             2021 Uganda  Semuli~      80 3       " B,S,~
 7  2542 5150             2021 India   Anamal~      68 3       " B,S,~
 8   797 A. Morin         2012 Bolivia Bolivia      70 4       " B,S,~
 9   797 A. Morin         2012 Peru    Peru         63 4       " B,S,~
10  1011 A. Morin         2013 Panama  Panama       70 4       " B,S,~
# ... with 2,433 more rows, 27 more variables:
#   most_memorable_characteristics <chr>, rating <dbl>,
#   company_location <chr>, contain_salt <dbl>,
#   contain_lecithin <dbl>, contain_vanilla <dbl>,
#   contain_cocoa <dbl>, contain_other_sweet <dbl>,
#   contain_bean <dbl>, taste_fruity <dbl>, taste_sweet <dbl>,
#   taste_earthy <dbl>, taste_cocoa <dbl>, taste_nutty <dbl>, ...
…
