Causal Inference - Inverse Probability Weighting
…
Then, I will generate the propensity for the model.

barrels_prob <- 
  augment_columns(model_logit
                  ,barrels_obs
                  ,type.predict = "response") %>% 
  rename(propensity = .fitted)

barrels_prob

# A tibble: 1,241 x 16
      id water_bill barrel    barrel~1 yard_~2 home_~3 home_~4 attit~5
   <dbl>      <dbl> <fct>        <dbl>   <dbl> <chr>     <dbl>   <dbl>
 1     1       213. Barrel           1   25811 No hom~       0       3
 2     2       259. No barrel        0   39479 Home g~       1       7
 3     3       156. Barrel           1   13297 No hom~       0       7
 4     4       255. No barrel        0   28259 No hom~       0       2
 5     5       195. Barrel           1   21479 No hom~       0       5
 6     6       202. Barrel           1   28906 Home g~       1       8
 7     7       210. No barrel        0    7041 No hom~       0       3
 8     8       256. No barrel        0   29434 No hom~       0       4
 9     9       188. Barrel           1   24779 Home g~       1       8
10    10       252. No barrel        0   29741 Home g~       1       9
# ... with 1,231 more rows, 8 more variables: temperature <dbl>,
#   propensity <dbl>, .se.fit <dbl>, .resid <dbl>, .hat <dbl>,
#   .sigma <dbl>, .cooksd <dbl>, .std.resid <dbl>, and abbreviated
#   variable names 1: barrel_num, 2: yard_size, 3: home_garden,
#   4: home_garden_num, 5: attitude_env

Once that is done, I will calculate the inverse probability weighting.

barrels_ipw <-
  barrels_prob %>% 
  mutate(ipw = (barrel_num / propensity) + ((1 - barrel_num) / (1 - propensity)))

barrels_ipw

# A tibble: 1,241 x 17
      id water_bill barrel    barrel~1 yard_~2 home_~3 home_~4 attit~5
   <dbl>      <dbl> <fct>        <dbl>   <dbl> <chr>     <dbl>   <dbl>
 1     1       213. Barrel           1   25811 No hom~       0       3
 2     2       259. No barrel        0   39479 Home g~       1       7
 3     3       156. Barrel           1   13297 No hom~       0       7
 4     4       255. No barrel        0   28259 No hom~       0       2
 5     5       195. Barrel           1   21479 No hom~       0       5
 6     6       202. Barrel           1   28906 Home g~       1       8
 7     7       210. No barrel        0    7041 No hom~       0       3
 8     8       256. No barrel        0   29434 No hom~       0       4
 9     9       188. Barrel           1   24779 Home g~       1       8
10    10       252. No barrel        0   29741 Home g~       1       9
# ... with 1,231 more rows, 9 more variables: temperature <dbl>,
#   propensity <dbl>, .se.fit <dbl>, .resid <dbl>, .hat <dbl>,
#   .sigma <dbl>, .cooksd <dbl>, .std.resid <dbl>, ipw <dbl>, and
#   abbreviated variable names 1: barrel_num, 2: yard_size,
#   3: home_garden, 4: home_garden_num, 5: attitude_env
…
Then, I will pass the info into the bootstrap function to compute the necessary results.

set.seed(1234)

ipw_bootstrap_df <-
  bootstraps(barrels_obs, 1000, apparent = TRUE) %>% 
  mutate(results = map(splits, fit_one_ipw))

As the results are nested, so we will need to unnest the results to see the values.

ipw_bootstrap_df %>% 
  unnest(results)

# A tibble: 2,002 x 7
   splits             id       term  estim~1 std.e~2 stati~3   p.value
   <list>             <chr>    <chr>   <dbl>   <dbl>   <dbl>     <dbl>
 1 <split [1241/450]> Bootstr~ (Int~   228.     1.23   184.  0        
 2 <split [1241/450]> Bootstr~ barr~   -38.0    1.73   -21.9 1.90e- 90
 3 <split [1241/442]> Bootstr~ (Int~   229.     1.14   201.  0        
 4 <split [1241/442]> Bootstr~ barr~   -41.2    1.59   -25.9 7.02e-119
 5 <split [1241/444]> Bootstr~ (Int~   229.     1.18   194.  0        
 6 <split [1241/444]> Bootstr~ barr~   -39.7    1.65   -24.0 6.47e-105
 7 <split [1241/441]> Bootstr~ (Int~   228.     1.20   191.  0        
 8 <split [1241/441]> Bootstr~ barr~   -37.6    1.68   -22.4 1.75e- 93
 9 <split [1241/455]> Bootstr~ (Int~   227.     1.18   193.  0        
10 <split [1241/455]> Bootstr~ barr~   -36.2    1.66   -21.8 1.63e- 89
# ... with 1,992 more rows, and abbreviated variable names
#   1: estimate, 2: std.error, 3: statistic
…
