Logistic Regression on Aggregated Data
…
Compare the predictions

Lastly, I will extract the predictions from the last two fit models.

predict(logit_agg, type = "response") %>% 
  as_tibble()

# A tibble: 1,099 x 1
   value
   <dbl>
 1 0.253
 2 0.259
 3 0.222
 4 0.184
 5 0.661
 6 0.581
 7 0.416
 8 0.400
 9 0.201
10 0.527
# ... with 1,089 more rows

predict(logit_agg_rate, type = "response") %>% 
  as_tibble()

# A tibble: 1,099 x 1
   value
   <dbl>
 1 0.253
 2 0.259
 3 0.222
 4 0.184
 5 0.661
 6 0.581
 7 0.416
 8 0.400
 9 0.201
10 0.527
# ... with 1,089 more rows
…
