When Actuarial Science Collides with Data Science: Topic Modeling
…
To visualize the result, I will use tidy function to
convert the object into tidy data format so that ggplot
function can be used.

This is where we can use the tidy function within
tidytext package to help us to convert the dfm object into
a tidy object. Note that I have not passed in another argument, so the
default matrix would be beta as shown in the result below.

df_lda_lemma_3_tidy <- tidy(df_lda_lemma_3)

df_lda_lemma_3_tidy

# A tibble: 545 x 3
   topic term                   beta
   <int> <chr>                 <dbl>
 1     1 african american    0.0215 
 2     2 african american    0.00110
 3     3 african american    0.00125
 4     4 african american    0.00285
 5     5 african american    0.00140
 6     1 fictional character 0.0109 
 7     2 fictional character 0.0109 
 8     3 fictional character 0.00563
 9     4 fictional character 0.00187
10     5 fictional character 0.00489
# ... with 535 more rows
…
