Model Performance on Survival Models
…
# fit the model
cox_res <- fit_resamples(
  cox_wf,
  resamples = validation_set(df_splits),
  metrics = survival_metrics,
  eval_time = time_points, 
  control = control_resamples(save_pred = TRUE)
)

To collect the model performance, we need to pass the fitted object into collect_metrics function.

collect_metrics(cox_res)

# A tibble: 24 × 7
   .metric          .estimator .eval_time   mean     n std_err .config
   <chr>            <chr>           <dbl>  <dbl> <int>   <dbl> <chr>  
 1 brier_survival   standard            0 0          1      NA Prepro…
 2 roc_auc_survival standard            0 0.5        1      NA Prepro…
 3 brier_survival   standard            1 0.0210     1      NA Prepro…
 4 roc_auc_survival standard            1 0.743      1      NA Prepro…
 5 brier_survival   standard            2 0.0408     1      NA Prepro…
 6 roc_auc_survival standard            2 0.772      1      NA Prepro…
 7 brier_survival   standard            3 0.0608     1      NA Prepro…
 8 roc_auc_survival standard            3 0.755      1      NA Prepro…
 9 brier_survival   standard            4 0.0794     1      NA Prepro…
10 roc_auc_survival standard            4 0.747      1      NA Prepro…
# ℹ 14 more rows
…
