When Actuarial Science Collides with Data Science: Time Series Decomposition
…
# A mable: 1 x 2
# Key:     data_series [1]
  data_series         `classical_decomposition(type = "additive")`
  <chr>                                                    <model>
1 Clothing & Footwear                              <DECOMPOSITION>

The output consists of the selected data series and the model.

To extract the info of the fitted model, I will use the
components function.

classical_model %>%
  components()

# A dable: 96 x 8 [1M]
# Key:     data_series, .model [1]
# :        cpi = trend + seasonal + random
   data_series    .model month_year_reco~   cpi trend seasonal  random
   <chr>          <chr>             <mth> <dbl> <dbl>    <dbl>   <dbl>
 1 Clothing & Fo~ "clas~         2014 Jan  99.5  NA     0.0906 NA     
 2 Clothing & Fo~ "clas~         2014 Feb  97.3  NA     0.457  NA     
 3 Clothing & Fo~ "clas~         2014 Mar 100.   NA     1.40   NA     
 4 Clothing & Fo~ "clas~         2014 Apr 100.   NA     0.679  NA     
 5 Clothing & Fo~ "clas~         2014 May  99.1  NA     0.419  NA     
 6 Clothing & Fo~ "clas~         2014 Jun  96.6  NA    -1.18   NA     
 7 Clothing & Fo~ "clas~         2014 Jul  97.3  98.4  -1.22    0.111 
 8 Clothing & Fo~ "clas~         2014 Aug  99.7  98.3  -0.597   2.06  
 9 Clothing & Fo~ "clas~         2014 Sep  97.4  98.2  -0.174  -0.694 
10 Clothing & Fo~ "clas~         2014 Oct  98.2  98.1  -0.0440  0.0717
# ... with 86 more rows, and 1 more variable: season_adjust <dbl>
…
STL Decomposition

Lastly, I will use STL function to decompose the time
series.

As such, I will use the STL function from
feasts package to perform the task.

df_1_ts %>%
  filter(data_series == interested_cpi_item) %>%
  model(STL(cpi)) %>%
  components()

# A dable: 96 x 8 [1M]
# Key:     data_series, .model [1]
# :        cpi = trend + season_year + remainder
   data_series         .model month_year_reco~   cpi trend season_year
   <chr>               <chr>             <mth> <dbl> <dbl>       <dbl>
 1 Clothing & Footwear STL(c~         2014 Jan  99.5  98.9      0.0215
 2 Clothing & Footwear STL(c~         2014 Feb  97.3  98.8     -0.0474
 3 Clothing & Footwear STL(c~         2014 Mar 100.   98.7      1.39  
 4 Clothing & Footwear STL(c~         2014 Apr 100.   98.7      1.06  
 5 Clothing & Footwear STL(c~         2014 May  99.1  98.6      0.535 
 6 Clothing & Footwear STL(c~         2014 Jun  96.6  98.5     -1.24  
 7 Clothing & Footwear STL(c~         2014 Jul  97.3  98.4     -1.13  
 8 Clothing & Footwear STL(c~         2014 Aug  99.7  98.3     -0.395 
 9 Clothing & Footwear STL(c~         2014 Sep  97.4  98.3     -0.185 
10 Clothing & Footwear STL(c~         2014 Oct  98.2  98.2      0.0158
# ... with 86 more rows, and 2 more variables: remainder <dbl>,
#   season_adjust <dbl>
…
