Multinomial Logistic Regression
…
According to CRAN, different packages would help us to model multi-state (e.g. mstate, msm).

In this demonstration, I will be using different functions to fit a multinomial regression.

Setup the environment

First, I will load the necessary packages into the environment.

pacman::p_load(tidyverse, tidymodels, palmerpenguins, brulee, VGAM, nnet)

If we were to call the dataset, we would notice that there are some missing values within the dataset.

penguins

# A tibble: 344 x 8
   species island    bill_length~1 bill_~2 flipp~3 body_~4 sex    year
   <fct>   <fct>             <dbl>   <dbl>   <int>   <int> <fct> <int>
 1 Adelie  Torgersen          39.1    18.7     181    3750 male   2007
 2 Adelie  Torgersen          39.5    17.4     186    3800 fema~  2007
 3 Adelie  Torgersen          40.3    18       195    3250 fema~  2007
 4 Adelie  Torgersen          NA      NA        NA      NA <NA>   2007
 5 Adelie  Torgersen          36.7    19.3     193    3450 fema~  2007
 6 Adelie  Torgersen          39.3    20.6     190    3650 male   2007
 7 Adelie  Torgersen          38.9    17.8     181    3625 fema~  2007
 8 Adelie  Torgersen          39.2    19.6     195    4675 male   2007
 9 Adelie  Torgersen          34.1    18.1     193    3475 <NA>   2007
10 Adelie  Torgersen          42      20.2     190    4250 <NA>   2007
# ... with 334 more rows, and abbreviated variable names
#   1: bill_length_mm, 2: bill_depth_mm, 3: flipper_length_mm,
#   4: body_mass_g
…
Response: species

                  Df Deviance Resid. Df Resid. Dev  Pr(>Chi)    
flipper_length_mm  2   212.69       682     363.95 < 2.2e-16 ***
island             4   136.78       684     288.04 < 2.2e-16 ***
---
Signif. codes:  0 '***' 0.001 '**' 0.01 '*' 0.05 '.' 0.1 ' ' 1

To extract the predictions, we could use predict.vlm function from the package to do so.

predict.vlm(vglm_fit, newdata = df_imputed, type = "response") %>% 
  as_tibble()

# A tibble: 344 x 2
   `log(mu[,1]/mu[,3])` `log(mu[,2]/mu[,3])`
                  <dbl>                <dbl>
 1                 45.1                 31.8
 2                 38.6                 25.9
 3                 26.7                 15.2
 4                 37.3                 24.7
 5                 29.4                 17.6
 6                 33.3                 21.1
 7                 45.1                 31.8
 8                 26.7                 15.2
 9                 29.4                 17.6
10                 33.3                 21.1
# ... with 334 more rows
…
data.frame(exp(coefs_c_to_b))

                  exp.coefs_c_to_b.
(Intercept)           2.464929e-104
flipper_length_mm      3.444904e+00
islandDream            2.912002e-15
islandTorgersen        1.486209e-40

We could extract the fitted values by extracting the fitted.values object from the fitted model.

nnet_fit$fitted.values %>% 
  as_tibble()

# A tibble: 344 x 3
   Adelie Chinstrap   Gentoo
    <dbl>     <dbl>    <dbl>
 1   1.00  3.31e-14 2.05e-60
 2   1.00  6.36e-14 1.92e-57
 3   1.00  2.06e-13 4.25e-52
 4   1.00  7.25e-14 7.52e-57
 5   1.00  1.59e-13 2.76e-53
 6   1.00  1.07e-13 4.55e-55
 7   1.00  3.31e-14 2.05e-60
 8   1.00  2.06e-13 4.25e-52
 9   1.00  1.59e-13 2.76e-53
10   1.00  1.07e-13 4.55e-55
# ... with 334 more rows
…
