Tweedie Distribution
…
Note that the default prediction type is link. To get the same scale as the target variable, I will indicate the type.predict would be “response”.

To double-check, I have also run predictions by using the predict function from base R.

predict(clm_cnt_glm
        ,newdata = pol_clm_df
        ,type = "response"
        ) %>% 
  as_tibble()

# A tibble: 99,999 x 1
    value
    <dbl>
 1 0.155 
 2 0.192 
 3 0.176 
 4 0.0983
 5 0.153 
 6 0.0813
 7 0.163 
 8 0.154 
 9 0.140 
10 0.163 
# ... with 99,989 more rows
…
