Text Analytics 101
…
I will perform a frequency count on each word in the entire dataset,
regardless of which documents they appear on.

text_df_stem_1_tidy_count <- text_df_stem_1_tidy %>%
  group_by(term) %>%
  summarise(tot_count = sum(count))

I will further sort the count descending. From the results, we can
see that some of the words appear more frequently than the rest.

text_df_stem_1_tidy_count %>%
  arrange(desc(tot_count))

# A tibble: 5,398 x 2
   term     tot_count
   <chr>        <dbl>
 1 state         2810
 2 unit          2076
 3 includ        1416
 4 american      1305
 5 world         1267
 6 year          1154
 7 nation        1047
 8 war           1037
 9 time           928
10 film           862
# ... with 5,388 more rows
…
